# Created by Octave 3.2.4, Wed Sep 11 10:24:29 2013 CEST <pedrofortunyayuso@mypera.local>
# name: ym
# type: matrix
# rows: 11
# columns: 2
 0 -1
 0.6 0.2064037869507271
 1.2 0.5685253369887351
 1.8 0.2841805458431075
 2.4 -0.3591978548413151
 3 -1.027759588633588
 3.6 -1.424678986521958
 4.2 -1.374599547342611
 4.8 -0.8737288010929986
 5.399999999999999 -0.08468904741656391
 6 0.7240462589660365
